{
    "projects": {
        "deg-exceptions-handler": {
            "type": "library",
            "root": "libs/deg-exceptions-handler",
            "entryFile": "index",
            "sourceRoot": "libs/deg-exceptions-handler/src",
            "compilerOptions": {
                "tsConfigPath": "libs/deg-exceptions-handler/tsconfig.lib.json"
            }
        },
        "deg-decorators": {
            "type": "library",
            "root": "libs/deg-decorators",
            "entryFile": "index",
            "sourceRoot": "libs/deg-decorators/src",
            "compilerOptions": {
                "tsConfigPath": "libs/deg-decorators/tsconfig.lib.json"
            }
        },
        "deg-validators": {
            "type": "library",
            "root": "libs/deg-validators",
            "entryFile": "index",
            "sourceRoot": "libs/deg-validators/src",
            "compilerOptions": {
                "tsConfigPath": "libs/deg-validators/tsconfig.lib.json"
            }
        },
        "deg-generics": {
            "type": "library",
            "root": "libs/deg-generics",
            "entryFile": "index",
            "sourceRoot": "libs/deg-generics/src",
            "compilerOptions": {
                "tsConfigPath": "libs/deg-generics/tsconfig.lib.json"
            }
        },
        "deg-transforms": {
            "type": "library",
            "root": "libs/deg-transforms",
            "entryFile": "index",
            "sourceRoot": "libs/deg-transforms/src",
            "compilerOptions": {
                "tsConfigPath": "libs/deg-transforms/tsconfig.lib.json"
            }
        },
        "deg-nest-cli": {
            "type": "library",
            "root": "libs/deg-nest-cli",
            "entryFile": "index",
            "sourceRoot": "libs/deg-nest-cli/src",
            "compilerOptions": {
                "tsConfigPath": "libs/deg-nest-cli/tsconfig.lib.json"
            }
        }
    },
    "compilerOptions": {
        "webpack": true
    }
}
